com\cogni\multilang\util\LoggerStackTraceUtil.class
com\cogni\multilang\controller\HomeController.class
com\cogni\multilang\model\Output.class
com\cogni\multilang\Main.class
com\cogni\multilang\model\InputOutput.class
com\cogni\multilang\model\User.class
com\cogni\multilang\model\Input.class
com\cogni\multilang\service\MultiLangServiceImpl.class
com\cogni\multilang\model\Language.class
com\cogni\multilang\service\MultiLangService.class
